…
    fetch_do()
    fetch_temp()

We don’t know the update schedule, but for now assume monthly or a
longer interval. Updating your data may be best done by simply reruning
the `fetch_*` functions.

## Read the data

``` r
do <- read_emolt(what = "do", form = "raw")
do
```

    ## # A tibble: 5,367,225 × 9
    ##    tow_id time                latitude longitude temperature    DO DO_percentage
    ##    <chr>  <dttm>                 <dbl>     <dbl>       <dbl> <dbl>         <dbl>
    ##  1 11455  2022-01-04 04:01:00     41.8     -70.5       -5.43   NaN           NaN
    ##  2 11455  2022-01-04 04:02:00     41.8     -70.5       -5.45   NaN           NaN
    ##  3 11455  2022-01-04 04:03:00     41.8     -70.5       -5.48   NaN           NaN
    ##  4 11455  2022-01-04 04:04:00     41.8     -70.5       -5.51   NaN           NaN
    ##  5 11455  2022-01-04 04:05:00     41.8     -70.5       -5.53   NaN           NaN
    ##  6 11455  2022-01-04 04:06:00     41.8     -70.5       -5.56   NaN           NaN
    ##  7 11455  2022-01-04 04:07:00     41.8     -70.5       -5.58   NaN           NaN
    ##  8 11455  2022-01-04 04:08:00     41.8     -70.5       -5.61   NaN           NaN
    ##  9 11455  2022-01-04 04:09:00     41.8     -70.5       -5.63   NaN           NaN
    ## 10 11455  2022-01-04 04:10:00     41.8     -70.5       -5.66   NaN           NaN
    ## # ℹ 5,367,215 more rows
    ## # ℹ 2 more variables: water_detect_perc <dbl>, sensor_type <chr>
…
``` r
temp = read_emolt(what = "temp", form = "raw")
temp
```

    ## # A tibble: 9,166,234 × 8
    ##    tow_id segment_type  time                latitude longitude depth temperature
    ##    <chr>  <chr>         <dttm>                 <dbl>     <dbl> <dbl>       <dbl>
    ##  1 5      Profiling Do… 2023-08-01 15:59:50     43.9     -69.6   2.4        23.9
    ##  2 5      Profiling Do… 2023-08-01 15:59:51     43.9     -69.6   4.6        24.0
    ##  3 5      Profiling Do… 2023-08-01 15:59:52     43.9     -69.6   7.3        24.2
    ##  4 5      Profiling Do… 2023-08-01 15:59:53     43.9     -69.6  10.4        24.4
    ##  5 5      Profiling Do… 2023-08-01 15:59:54     43.9     -69.6  12.6        24.6
    ##  6 5      Profiling Do… 2023-08-01 15:59:55     43.9     -69.6  13.8        24.8
    ##  7 5      Profiling Do… 2023-08-01 15:59:56     43.9     -69.6  15.2        24.9
    ##  8 5      Profiling Do… 2023-08-01 15:59:58     43.9     -69.6  17.2        25.1
    ##  9 5      Profiling Do… 2023-08-01 16:00:03     43.9     -69.6  23.9        25.5
    ## 10 5      Profiling Do… 2023-08-01 16:00:04     43.9     -69.6  26.2        25.6
    ## # ℹ 9,166,224 more rows
    ## # ℹ 1 more variable: sensor_type <chr>
…
